{
  "playbook_name": "ndd_web_servers",
  "playbook_namespace": "{{ cookiecutter.playbook_name}}",
  "playbook_description": "Add a meaningful description",
  "driver_name": "",
  "hyphened_playbook_name": "{{ cookiecutter.playbook_name.replace('_', '-') }}",
  "hyphened_playbook_namespace": "{{ cookiecutter.playbook_namespace.replace('_', '-') }}"
}
